ICC2011/LCD_CTRL.vcd
$date
	Wed Oct  4 21:26:28 2023

$end
$version
	ncsim 15.20-s039
$end
$timescale
	10ps
$end
$scope module test $end
$scope module top $end
$upscope $end
$scope module IROM_1 $end
$scope module irom_1 $end
$var reg 1 ! NOT_CEN $end
$var reg 1 " NOT_A0 $end
$var reg 1 # NOT_A1 $end
$var reg 1 $ NOT_A2 $end
$var reg 1 % NOT_A3 $end
$var reg 1 & NOT_A4 $end
$var reg 1 ' NOT_A5 $end
$var reg 1 ( NOT_A6 $end
$var reg 1 ) NOT_CLK_PER $end
$var reg 1 * NOT_CLK_MINH $end
$var reg 1 + NOT_CLK_MINL $end
$upscope $end
$upscope $end
$scope module IRB_1 $end
$var reg 1 , NOT_CEN $end
$var reg 1 - NOT_WEN $end
$var reg 1 . NOT_A0 $end
$var reg 1 / NOT_A1 $end
$var reg 1 0 NOT_A2 $end
$var reg 1 1 NOT_A3 $end
$var reg 1 2 NOT_A4 $end
$var reg 1 3 NOT_A5 $end
$var reg 1 4 NOT_D0 $end
$var reg 1 5 NOT_D1 $end
$var reg 1 6 NOT_D2 $end
$var reg 1 7 NOT_D3 $end
$var reg 1 8 NOT_D4 $end
$var reg 1 9 NOT_D5 $end
$var reg 1 : NOT_D6 $end
$var reg 1 ; NOT_D7 $end
$var reg 1 < NOT_CLK_PER $end
$var reg 1 = NOT_CLK_MINH $end
$var reg 1 > NOT_CLK_MINL $end
$upscope $end
$upscope $end
$enddefinitions $end
$dumpvars
x!
x>
x"
x=
x$
x<
x(
x;
x:
x9
x8
x7
x6
x5
x4
x3
x2
x0
x1
x)
x%
x*
x+
x#
x/
x&
x,
x-
x'
x.
$end
#5000
02
03
00
01
0/
0.
#35000
0"
1.
#45000
1"
0.
1/
0#
#55000
1.
0"
#65000
0.
1"
10
0$
1#
0/
#75000
0"
1.
#85000
1"
0.
0#
1/
#95000
1.
0"
#105000
0.
1"
1$
0%
00
0/
11
1#
#115000
1.
0"
#125000
0.
1"
1/
0#
#135000
0"
1.
#145000
1"
0.
10
0$
1#
0/
#155000
1.
0"
#165000
0.
1"
0#
1/
#175000
0"
1.
#185000
1"
0.
1$
00
01
12
0&
0/
1%
1#
#195000
0"
1.
#205000
1"
0.
1/
0#
#215000
1.
0"
#225000
0.
1"
10
0$
1#
0/
#235000
0"
1.
#245000
1"
0.
0#
1/
#255000
1.
0"
#265000
0.
1"
1$
11
00
0%
0/
1#
#275000
1.
0"
#285000
0.
1"
1/
0#
#295000
0"
1.
#305000
1"
0.
10
0$
1#
0/
#315000
1.
0"
#325000
0.
1"
0#
1/
#335000
0"
1.
#345000
1"
0.
1$
01
0'
13
00
1&
1%
0/
02
1#
#355000
0"
1.
#365000
1"
0.
1/
0#
#375000
1.
0"
#385000
0.
1"
0$
10
1#
0/
#395000
0"
1.
#405000
1"
0.
0#
1/
#415000
1.
0"
#425000
0.
1"
00
1$
0%
11
0/
1#
#435000
0"
1.
#445000
1"
0.
1/
0#
#455000
1.
0"
#465000
0.
1"
0$
10
1#
0/
#475000
0"
1.
#485000
1"
0.
0#
1/
#495000
1.
0"
#505000
0.
1"
00
01
12
1%
1$
0/
1#
0&
#515000
1.
0"
#525000
0.
1"
1/
0#
#535000
0"
1.
#545000
1"
0.
0$
10
1#
0/
#555000
1.
0"
#565000
0.
1"
0#
1/
#575000
0"
1.
#585000
1"
0.
00
1$
11
0/
1#
0%
#595000
0"
1.
#605000
1"
0.
1/
0#
#615000
0"
1.
#625000
1"
0.
1#
0/
10
0$
#635000
1.
0"
#645000
0.
1"
1/
0#
#655000
1.
0"
#665000
0.
02
0!
0/
01
03
00
#825000
0-
#835000
1.
#845000
1/
0.
#855000
1.
#865000
0/
0.
10
#875000
1.
#885000
1/
0.
#895000
1.
#905000
00
0.
11
0/
#915000
1.
#925000
1/
0.
#935000
1.
#945000
0/
0.
10
#955000
1.
#965000
1/
0.
#975000
1.
#985000
00
0.
01
12
0/
#995000
1.
#1005000
1/
0.
#1015000
1.
#1025000
0/
0.
10
#1035000
1.
#1045000
1/
0.
#1055000
1.
#1065000
00
0.
11
0/
#1075000
1.
#1085000
1/
0.
#1095000
1.
#1105000
0/
0.
10
#1115000
1.
#1125000
1/
0.
#1135000
1.
#1145000
00
0.
01
02
13
0/
#1155000
1.
#1165000
1/
0.
#1175000
1.
#1185000
0/
0.
10
#1195000
1.
#1205000
1/
0.
#1215000
1.
#1225000
00
0.
11
0/
#1235000
1.
#1245000
1/
0.
#1255000
1.
#1265000
0/
0.
10
#1275000
1.
#1285000
1/
0.
#1295000
1.
#1305000
00
0.
01
12
0/
#1315000
1.
#1325000
1/
0.
#1335000
1.
#1345000
0/
0.
10
#1355000
1.
#1365000
1/
0.
#1375000
1.
#1385000
00
0.
11
0/
#1395000
1.
#1405000
1/
0.
#1415000
1.
#1425000
0/
0.
10
#1435000
1.
#1445000
1/
0.
#1455000
1.
#1465000
00
0.
1-
02
03
0/
01
